{
    "items": [
        {
            "type": "item",
            "title": "01 - Your Time Has Come.flac",
            "link": "https://scuffedwebsite.com/tsunami/music/native/Audioslave%20-%20Out%20Of%20Exile/01%20-%20Your%20Time%20Has%20Come.flac",
            "thumbnail": "https://m.media-amazon.com/images/I/71t8uiMtBmL._UF1000,1000_QL80_.jpg",
            "summary": ""
        },
        {
            "type": "item",
            "title": "02 - Out Of Exile.flac",
            "link": "https://scuffedwebsite.com/tsunami/music/native/Audioslave%20-%20Out%20Of%20Exile/02%20-%20Out%20Of%20Exile.flac",
            "thumbnail": "https://m.media-amazon.com/images/I/71t8uiMtBmL._UF1000,1000_QL80_.jpg",
            "summary": ""
        },
        {
            "type": "item",
            "title": "03 - Be Yourself.flac",
            "link": "https://scuffedwebsite.com/tsunami/music/native/Audioslave%20-%20Out%20Of%20Exile/03%20-%20Be%20Yourself.flac",
            "thumbnail": "https://m.media-amazon.com/images/I/71t8uiMtBmL._UF1000,1000_QL80_.jpg",
            "summary": ""
        },
        {
            "type": "item",
            "title": "04 - Doesn%27t Remind Me.flac",
            "link": "https://scuffedwebsite.com/tsunami/music/native/Audioslave%20-%20Out%20Of%20Exile/04%20-%20Doesn%27t%20Remind%20Me.flac",
            "thumbnail": "https://m.media-amazon.com/images/I/71t8uiMtBmL._UF1000,1000_QL80_.jpg",
            "summary": ""
        },
        {
            "type": "item",
            "title": "05 - Drown Me Slowly.flac",
            "link": "https://scuffedwebsite.com/tsunami/music/native/Audioslave%20-%20Out%20Of%20Exile/05%20-%20Drown%20Me%20Slowly.flac",
            "thumbnail": "https://m.media-amazon.com/images/I/71t8uiMtBmL._UF1000,1000_QL80_.jpg",
            "summary": ""
        },
        {
            "type": "item",
            "title": "06 - Heaven%27s Dead.flac",
            "link": "https://scuffedwebsite.com/tsunami/music/native/Audioslave%20-%20Out%20Of%20Exile/06%20-%20Heaven%27s%20Dead.flac",
            "thumbnail": "https://m.media-amazon.com/images/I/71t8uiMtBmL._UF1000,1000_QL80_.jpg",
            "summary": ""
        },
        {
            "type": "item",
            "title": "07 - The Worm.flac",
            "link": "https://scuffedwebsite.com/tsunami/music/native/Audioslave%20-%20Out%20Of%20Exile/07%20-%20The%20Worm.flac",
            "thumbnail": "https://m.media-amazon.com/images/I/71t8uiMtBmL._UF1000,1000_QL80_.jpg",
            "summary": ""
        },
        {
            "type": "item",
            "title": "08 - Man Or Animal.flac",
            "link": "https://scuffedwebsite.com/tsunami/music/native/Audioslave%20-%20Out%20Of%20Exile/08%20-%20Man%20Or%20Animal.flac",
            "thumbnail": "https://m.media-amazon.com/images/I/71t8uiMtBmL._UF1000,1000_QL80_.jpg",
            "summary": ""
        },
        {
            "type": "item",
            "title": "09 - Yesterday To Tomorrow.flac",
            "link": "https://scuffedwebsite.com/tsunami/music/native/Audioslave%20-%20Out%20Of%20Exile/09%20-%20Yesterday%20To%20Tomorrow.flac",
            "thumbnail": "https://m.media-amazon.com/images/I/71t8uiMtBmL._UF1000,1000_QL80_.jpg",
            "summary": ""
        },
        {
            "type": "item",
            "title": "10 - Dandelion.flac",
            "link": "https://scuffedwebsite.com/tsunami/music/native/Audioslave%20-%20Out%20Of%20Exile/10%20-%20Dandelion.flac",
            "thumbnail": "https://m.media-amazon.com/images/I/71t8uiMtBmL._UF1000,1000_QL80_.jpg",
            "summary": ""
        },
        {
            "type": "item",
            "title": "11 - 1 Zero.flac",
            "link": "https://scuffedwebsite.com/tsunami/music/native/Audioslave%20-%20Out%20Of%20Exile/11%20-%201%20Zero.flac",
            "thumbnail": "https://m.media-amazon.com/images/I/71t8uiMtBmL._UF1000,1000_QL80_.jpg",
            "summary": ""
        },
        {
            "type": "item",
            "title": "12 - The Curse.flac",
            "link": "https://scuffedwebsite.com/tsunami/music/native/Audioslave%20-%20Out%20Of%20Exile/12%20-%20The%20Curse.flac",
            "thumbnail": "https://m.media-amazon.com/images/I/71t8uiMtBmL._UF1000,1000_QL80_.jpg",
            "summary": ""
        },
        {
            "type": "item",
            "title": "13 - Super Stupid BBonus Track.flac",
            "link": "https://scuffedwebsite.com/tsunami/music/native/Audioslave%20-%20Out%20Of%20Exile/13%20-%20Super%20Stupid%20%5BBonus%20Track%5D.flac",
            "thumbnail": "https://m.media-amazon.com/images/I/71t8uiMtBmL._UF1000,1000_QL80_.jpg",
            "summary": ""
        },
        {
            "type": "item",
            "title": "14 - Like A Stone Live Bonus Track.flac",
            "link": "https://scuffedwebsite.com/tsunami/music/native/Audioslave%20-%20Out%20Of%20Exile/14%20-%20Like%20A%20Stone%20%28Live%29%20%5BBonus%20Track%5D.flac",
            "thumbnail": "https://m.media-amazon.com/images/I/71t8uiMtBmL._UF1000,1000_QL80_.jpg",
            "summary": ""
        }
    ]
}