{
    "items": [
       
        {
            "type": "item",
            "title": "1 Orchestral Intro .flac",
            "link": "https://home.darkok.xyz/Music/Gorillaz%20-%20Plastic%20Beach/1%20Orchestral%20Intro%20%28ft.%20sinfonia%20ViVA%29.flac",
            "thumbnail": "https://home.darkok.xyz/Music/Gorillaz%20-%20Plastic%20Beach/Plastic%20Beach.jpg",
            "summary": ""
        },
        {
            "type": "item",
            "title": "10 On Melancholy Hill.flac",
            "link": "https://home.darkok.xyz/Music/Gorillaz%20-%20Plastic%20Beach/10%20On%20Melancholy%20Hill.flac",
            "thumbnail": "https://home.darkok.xyz/Music/Gorillaz%20-%20Plastic%20Beach/Plastic%20Beach.jpg",
            "summary": ""
        },
        {
            "type": "item",
            "title": "11 Broken.flac",
            "link": "https://home.darkok.xyz/Music/Gorillaz%20-%20Plastic%20Beach/11%20Broken.flac",
            "thumbnail": "https://home.darkok.xyz/Music/Gorillaz%20-%20Plastic%20Beach/Plastic%20Beach.jpg",
            "summary": ""
        },
        {
            "type": "item",
            "title": "12 Sweepstakes .flac",
            "link": "https://home.darkok.xyz/Music/Gorillaz%20-%20Plastic%20Beach/12%20Sweepstakes%20%28ft.%20Mos%20Def%2C%20Hypnotic%20Brass%20Ensemble%29.flac",
            "thumbnail": "https://home.darkok.xyz/Music/Gorillaz%20-%20Plastic%20Beach/Plastic%20Beach.jpg",
            "summary": ""
        },
        {
            "type": "item",
            "title": "13 Plastic Beach .flac",
            "link": "https://home.darkok.xyz/Music/Gorillaz%20-%20Plastic%20Beach/13%20Plastic%20Beach%20%28ft.%20Mick%20Jones%2C%20Paul%20Simonon%29.flac",
            "thumbnail": "https://home.darkok.xyz/Music/Gorillaz%20-%20Plastic%20Beach/Plastic%20Beach.jpg",
            "summary": ""
        },
        {
            "type": "item",
            "title": "14 To Binge .flac",
            "link": "https://home.darkok.xyz/Music/Gorillaz%20-%20Plastic%20Beach/14%20To%20Binge%20%28ft.%20Little%20Dragon%29.flac",
            "thumbnail": "https://home.darkok.xyz/Music/Gorillaz%20-%20Plastic%20Beach/Plastic%20Beach.jpg",
            "summary": ""
        },
        {
            "type": "item",
            "title": "15 Cloud of Unknowing .flac",
            "link": "https://home.darkok.xyz/Music/Gorillaz%20-%20Plastic%20Beach/15%20Cloud%20of%20Unknowing%20%28ft.%20Bobby%20Womack%2C%20sinfonia%20ViVA%29.flac",
            "thumbnail": "https://home.darkok.xyz/Music/Gorillaz%20-%20Plastic%20Beach/Plastic%20Beach.jpg",
            "summary": ""
        },
        {
            "type": "item",
            "title": "16 Pirate Jet.flac",
            "link": "https://home.darkok.xyz/Music/Gorillaz%20-%20Plastic%20Beach/16%20Pirate%20Jet.flac",
            "thumbnail": "https://home.darkok.xyz/Music/Gorillaz%20-%20Plastic%20Beach/Plastic%20Beach.jpg",
            "summary": ""
        },
        {
            "type": "item",
            "title": "2 Welcome to the World of the Plastic Beach .flac",
            "link": "https://home.darkok.xyz/Music/Gorillaz%20-%20Plastic%20Beach/2%20Welcome%20to%20the%20World%20of%20the%20Plastic%20Beach%20%28ft.%20Snoop%20Dogg%2C%20Hypnotic%20Brass%20Ensemble%29.flac",
            "thumbnail": "https://home.darkok.xyz/Music/Gorillaz%20-%20Plastic%20Beach/Plastic%20Beach.jpg",
            "summary": ""
        },
        {
            "type": "item",
            "title": "3 White Flag .flac",
            "link": "https://home.darkok.xyz/Music/Gorillaz%20-%20Plastic%20Beach/3%20White%20Flag%20%28ft.%20Bashy%2C%20Kano%2C%20National%20Orchestra%20for%20Arabic%20Music%29.flac",
            "thumbnail": "https://home.darkok.xyz/Music/Gorillaz%20-%20Plastic%20Beach/Plastic%20Beach.jpg",
            "summary": ""
        },
        {
            "type": "item",
            "title": "4 Rhinestone Eyes.flac",
            "link": "https://home.darkok.xyz/Music/Gorillaz%20-%20Plastic%20Beach/4%20Rhinestone%20Eyes.flac",
            "thumbnail": "https://home.darkok.xyz/Music/Gorillaz%20-%20Plastic%20Beach/Plastic%20Beach.jpg",
            "summary": ""
        },
        {
            "type": "item",
            "title": "5 Stylo .flac",
            "link": "https://home.darkok.xyz/Music/Gorillaz%20-%20Plastic%20Beach/5%20Stylo%20%28ft.%20Mos%20Def%2C%20Bobby%20Womack%29.flac",
            "thumbnail": "https://home.darkok.xyz/Music/Gorillaz%20-%20Plastic%20Beach/Plastic%20Beach.jpg",
            "summary": ""
        },
        {
            "type": "item",
            "title": "6 Superfast Jellyfish .flac",
            "link": "https://home.darkok.xyz/Music/Gorillaz%20-%20Plastic%20Beach/6%20Superfast%20Jellyfish%20%28ft.%20Gruff%20Rhys%2C%20De%20La%20Soul%29.flac",
            "thumbnail": "https://home.darkok.xyz/Music/Gorillaz%20-%20Plastic%20Beach/Plastic%20Beach.jpg",
            "summary": ""
        },
        {
            "type": "item",
            "title": "7 Empire Ants .flac",
            "link": "https://home.darkok.xyz/Music/Gorillaz%20-%20Plastic%20Beach/7%20Empire%20Ants%20%28ft.%20Little%20Dragon%29.flac",
            "thumbnail": "https://home.darkok.xyz/Music/Gorillaz%20-%20Plastic%20Beach/Plastic%20Beach.jpg",
            "summary": ""
        },
        {
            "type": "item",
            "title": "8 Glitter Freeze .flac",
            "link": "https://home.darkok.xyz/Music/Gorillaz%20-%20Plastic%20Beach/8%20Glitter%20Freeze%20%28ft.%20Mark%20E%20Smith%29.flac",
            "thumbnail": "https://home.darkok.xyz/Music/Gorillaz%20-%20Plastic%20Beach/Plastic%20Beach.jpg",
            "summary": ""
        },
        {
            "type": "item",
            "title": "9 Some Kind of Nature .flac",
            "link": "https://home.darkok.xyz/Music/Gorillaz%20-%20Plastic%20Beach/9%20Some%20Kind%20of%20Nature%20%28ft.%20Lou%20Reed%29.flac",
            "thumbnail": "https://home.darkok.xyz/Music/Gorillaz%20-%20Plastic%20Beach/Plastic%20Beach.jpg",
            "summary": ""
        }
    ]
}