{
    "items": [
        
        {
            "type": "item",
            "title": "01. Live Forever.flac",
            "link": "https://home.darkok.xyz/Music/Oasis%20-%20Stop%20The%20Clocks/Oasis%20-%20Stop%20The%20Clocks%20%5BDisc%202%5D/01.%20Live%20Forever.flac",
            "thumbnail": "https://home.darkok.xyz/Music/Oasis%20-%20Stop%20The%20Clocks/Oasis%20-%20Stop%20The%20Clocks%20%5BDisc%202%5D/cover.jpg",
            "summary": ""
        },
        {
            "type": "item",
            "title": "02. Acquiesce.flac",
            "link": "https://home.darkok.xyz/Music/Oasis%20-%20Stop%20The%20Clocks/Oasis%20-%20Stop%20The%20Clocks%20%5BDisc%202%5D/02.%20Acquiesce.flac",
            "thumbnail": "https://home.darkok.xyz/Music/Oasis%20-%20Stop%20The%20Clocks/Oasis%20-%20Stop%20The%20Clocks%20%5BDisc%202%5D/cover.jpg",
            "summary": ""
        },
        {
            "type": "item",
            "title": "03. Supersonic.flac",
            "link": "https://home.darkok.xyz/Music/Oasis%20-%20Stop%20The%20Clocks/Oasis%20-%20Stop%20The%20Clocks%20%5BDisc%202%5D/03.%20Supersonic.flac",
            "thumbnail": "https://home.darkok.xyz/Music/Oasis%20-%20Stop%20The%20Clocks/Oasis%20-%20Stop%20The%20Clocks%20%5BDisc%202%5D/cover.jpg",
            "summary": ""
        },
        {
            "type": "item",
            "title": "04. Half The World Away.flac",
            "link": "https://home.darkok.xyz/Music/Oasis%20-%20Stop%20The%20Clocks/Oasis%20-%20Stop%20The%20Clocks%20%5BDisc%202%5D/04.%20Half%20The%20World%20Away.flac",
            "thumbnail": "https://home.darkok.xyz/Music/Oasis%20-%20Stop%20The%20Clocks/Oasis%20-%20Stop%20The%20Clocks%20%5BDisc%202%5D/cover.jpg",
            "summary": ""
        },
        {
            "type": "item",
            "title": "05. Go Let It Out.flac",
            "link": "https://home.darkok.xyz/Music/Oasis%20-%20Stop%20The%20Clocks/Oasis%20-%20Stop%20The%20Clocks%20%5BDisc%202%5D/05.%20Go%20Let%20It%20Out.flac",
            "thumbnail": "https://home.darkok.xyz/Music/Oasis%20-%20Stop%20The%20Clocks/Oasis%20-%20Stop%20The%20Clocks%20%5BDisc%202%5D/cover.jpg",
            "summary": ""
        },
        {
            "type": "item",
            "title": "06. Songbird.flac",
            "link": "https://home.darkok.xyz/Music/Oasis%20-%20Stop%20The%20Clocks/Oasis%20-%20Stop%20The%20Clocks%20%5BDisc%202%5D/06.%20Songbird.flac",
            "thumbnail": "https://home.darkok.xyz/Music/Oasis%20-%20Stop%20The%20Clocks/Oasis%20-%20Stop%20The%20Clocks%20%5BDisc%202%5D/cover.jpg",
            "summary": ""
        },
        {
            "type": "item",
            "title": "07. Morning Glory.flac",
            "link": "https://home.darkok.xyz/Music/Oasis%20-%20Stop%20The%20Clocks/Oasis%20-%20Stop%20The%20Clocks%20%5BDisc%202%5D/07.%20Morning%20Glory.flac",
            "thumbnail": "https://home.darkok.xyz/Music/Oasis%20-%20Stop%20The%20Clocks/Oasis%20-%20Stop%20The%20Clocks%20%5BDisc%202%5D/cover.jpg",
            "summary": ""
        },
        {
            "type": "item",
            "title": "08. Champagne Supernova.flac",
            "link": "https://home.darkok.xyz/Music/Oasis%20-%20Stop%20The%20Clocks/Oasis%20-%20Stop%20The%20Clocks%20%5BDisc%202%5D/08.%20Champagne%20Supernova.flac",
            "thumbnail": "https://home.darkok.xyz/Music/Oasis%20-%20Stop%20The%20Clocks/Oasis%20-%20Stop%20The%20Clocks%20%5BDisc%202%5D/cover.jpg",
            "summary": ""
        },
        {
            "type": "item",
            "title": "09. Dont Look Back In Anger.flac",
            "link": "https://home.darkok.xyz/Music/Oasis%20-%20Stop%20The%20Clocks/Oasis%20-%20Stop%20The%20Clocks%20%5BDisc%202%5D/09.%20Dont%20Look%20Back%20In%20Anger.flac",
            "thumbnail": "https://home.darkok.xyz/Music/Oasis%20-%20Stop%20The%20Clocks/Oasis%20-%20Stop%20The%20Clocks%20%5BDisc%202%5D/cover.jpg",
            "summary": ""
        }
    ]
}